{
  "weather": {
    "weatherData": [
      {
        "observations": [
          {
            "visibility": "10 km",
            "dewPoint": "2 C",
            "skyConditions": "sunny",
            "temperature": "18",
            "relativeHumidity": "35",
            "time": "11 AM",
            "wind": "15 km per hour",
            "status": "Normal"
          }
        ],
        "location": {
          "country": null,
          "city": "Melbourne"
        }
      }
    ]
  }
}